Project 1 : Exploratory Data Analysis (EDA)
…
Computing combined default rate:

combo_grade_income <- credit_risk_dataset_clean %>%
  group_by(loan_grade, income_group) %>%
  summarise(
    total_loans = n(),
    defaults = sum(loan_status == "1"),
    default_rate = mean(loan_status == "1"),
    .groups = "drop"
  )
combo_grade_income

## # A tibble: 35 × 5
##    loan_grade income_group total_loans defaults default_rate
##    <fct>      <fct>              <int>    <int>        <dbl>
##  1 A          <30k                 890      342      0.384  
##  2 A          30k-60k             3910      432      0.110  
##  3 A          60k-100k            3233      114      0.0353 
##  4 A          100k-200k           1256       15      0.0119 
##  5 A          200k+                113        1      0.00885
##  6 B          <30k                 961      372      0.387  
##  7 B          30k-60k             3913      787      0.201  
##  8 B          60k-100k            2963      246      0.0830 
##  9 B          100k-200k           1143       42      0.0367 
## 10 B          200k+                171        6      0.0351 
## # ℹ 25 more rows

We will remove small cells as they distort percentages.

combo_filtered <- combo_grade_income %>%
  filter(total_loans >= 50)
combo_filtered

## # A tibble: 26 × 5
##    loan_grade income_group total_loans defaults default_rate
##    <fct>      <fct>              <int>    <int>        <dbl>
##  1 A          <30k                 890      342      0.384  
##  2 A          30k-60k             3910      432      0.110  
##  3 A          60k-100k            3233      114      0.0353 
##  4 A          100k-200k           1256       15      0.0119 
##  5 A          200k+                113        1      0.00885
##  6 B          <30k                 961      372      0.387  
##  7 B          30k-60k             3913      787      0.201  
##  8 B          60k-100k            2963      246      0.0830 
##  9 B          100k-200k           1143       42      0.0367 
## 10 B          200k+                171        6      0.0351 
## # ℹ 16 more rows
…
